{
    "Add describe block": {
        "prefix": ["describe", "d"],
        "body": [
            "describe('$1', () => {",
            "\t$0",
            "});"
        ],
        "description": "Add describe block"
    },
    "Add context block": {
        "prefix": ["context", "c"],
        "body": [
            "context('$1', () => {",
            "\t$0",
            "});"
        ],
        "description": "Add context block"
    },
    "Add full it block": {
        "prefix": ["it"],
        "body": [
            "it('$1', () => {",
            "\t// Arrange",
            "\t$0",
            "",
            "\t// Act",
            "",
            "\t// Assert",
            "",
            "});"
        ],
        "description": "Add full it block"
    },
    "Add it block": {
        "prefix": ["i"],
        "body": [
            "it('$1', () => {",
            "\t$0",
            "});"
        ],
        "description": "Add it block"
    },
    "AAA": {
        "prefix": ["aaa", "3a"],
        "body": [
            "// Arrange",
            "$1",
            "",
            "// Act",
            "$2",
            "",
            "// Assert",
            "$0"
        ],
        "description": "Add AAA"
    }
}